<?xml version="1.0" encoding="UTF-8"?>
<svg width="20px" height="20px" viewBox="0 0 20 20" version="1.1" xmlns="http://www.w3.org/2000/svg" xmlns:xlink="http://www.w3.org/1999/xlink">
    <!-- Generator: Sketch 57.1 (83088) - https://sketch.com -->
    <title>icon-user</title>
    <desc>Created with Sketch.</desc>
    <defs>
        <path d="M1199.55556,49 L1208.44444,49 C1211.43599,49 1213.87527,51.1280465 1213.99537,53.7939004 L1214,54 L1214,56 C1214,56.5522847 1213.50254,57 1212.88889,57 C1212.31615,57 1211.84462,56.6099903 1211.7843,56.108961 L1211.77778,56 L1211.77778,54 C1211.77778,52.4002787 1210.38654,51.0930038 1208.6336,51.004749 L1208.44444,51 L1199.55556,51 C1197.77809,51 1196.32556,52.2521121 1196.2275,53.8297625 L1196.22222,54 L1196.22222,56 C1196.22222,56.5522847 1195.72476,57 1195.11111,57 C1194.53837,57 1194.06684,56.6099903 1194.00652,56.108961 L1194,56 L1194,54 C1194,51.3076118 1196.3645,49.1122556 1199.32656,49.0041705 L1199.55556,49 L1208.44444,49 Z M1204,37 C1207.06825,37 1209.55556,39.2385763 1209.55556,42 C1209.55556,44.7614237 1207.06825,47 1204,47 C1200.93175,47 1198.44444,44.7614237 1198.44444,42 C1198.44444,39.2385763 1200.93175,37 1204,37 Z M1204,39 C1202.15905,39 1200.66667,40.3431458 1200.66667,42 C1200.66667,43.6568542 1202.15905,45 1204,45 C1205.84095,45 1207.33333,43.6568542 1207.33333,42 C1207.33333,40.3431458 1205.84095,39 1204,39 Z" id="path-1"></path>
    </defs>
    <g id="Overview" stroke="none" stroke-width="1" fill="none" fill-rule="evenodd">
        <g id="Overview-" transform="translate(-1194.000000, -37.000000)">
            <mask id="mask-2" fill="white">
                <use xlink:href="#path-1"></use>
            </mask>
            <use id="icon-user" fill="#0094FF" fill-rule="nonzero" xlink:href="#path-1"></use>
        </g>
    </g>
</svg>