<?xml version="1.0" encoding="UTF-8"?>
<svg width="29px" height="23px" viewBox="0 0 29 23" version="1.1" xmlns="http://www.w3.org/2000/svg" xmlns:xlink="http://www.w3.org/1999/xlink">
    <!-- Generator: Sketch 57.1 (83088) - https://sketch.com -->
    <title>icon-weather</title>
    <desc>Created with Sketch.</desc>
    <g id="Overview" stroke="none" stroke-width="1" fill="none" fill-rule="evenodd">
        <g id="Overview-" transform="translate(-920.000000, -162.000000)" fill="#F1963A" fill-rule="nonzero">
            <g id="icon-weather" transform="translate(920.000000, 162.000000)">
                <path d="M23.316825,10.5746812 C21.8462625,8.058625 19.1352812,6.49936875 16.2118375,6.49936875 C15.5030062,6.49936875 14.8121437,6.5880625 14.1209937,6.76501875 C13.1465125,5.6134375 11.6939187,4.922575 10.1345187,4.922575 C7.2642625,4.922575 4.907625,7.26124375 4.907625,10.149325 C4.907625,11.5667 5.47471875,12.895525 6.467025,13.8698625 C5.3153,14.8266625 4.60675625,16.2618625 4.60675625,17.8211187 C4.60675625,20.2661625 6.378475,22.3925125 8.77033125,22.8532313 L8.77033125,22.9416375 L22.749875,22.9416375 C26.1694,22.9416375 28.9511062,20.1599312 28.9511062,16.7401188 C28.9335687,13.5514563 26.4886687,10.876125 23.316825,10.5746812 Z M9.798,14.4373875 L9.88669375,13.7995687 C10.0993,12.2932125 10.861175,10.9114875 12.0127562,9.90164375 C13.1820187,8.8918 14.6706937,8.32485 16.2119812,8.32485 C18.1609437,8.32485 20.0212125,9.22831875 21.226125,10.7343875 C19.8442562,11.0887312 18.6216625,11.90365 17.7532687,13.0555187 C17.6118187,13.2503 17.5408062,13.4984125 17.5761687,13.7288437 C17.611675,13.9768125 17.7357312,14.1897062 17.9305125,14.3315875 C18.3381875,14.6328875 18.9049937,14.5441937 19.2064375,14.1362312 C20.0390375,13.0200125 21.3149625,12.3646562 22.7143687,12.3646562 C25.1243375,12.3646562 27.0906937,14.3317312 27.0906937,16.7406937 C27.0906937,19.1508062 25.1241937,21.1173062 22.7143687,21.1173062 L9.70945,21.1173062 C7.90208125,21.0999125 6.44919491,19.6113812 6.44919491,17.8218375 C6.44641167,16.2264284 7.58938674,14.8592585 9.1600375,14.5792687 L9.798,14.4373875 L9.798,14.4373875 Z M6.73310625,10.1496125 C6.73310625,8.27151875 8.27425,6.72994375 10.152775,6.72994375 C10.9498687,6.72994375 11.712175,7.01341875 12.2966625,7.4919625 C11.7649313,7.77558125 11.26885,8.129925 10.8084187,8.51963125 C9.4969875,9.6712125 8.57569375,11.2306125 8.18584375,12.9137812 C8.16801875,12.9137812 8.16801875,12.9137812 8.15048125,12.9314625 C7.26440625,12.2936437 6.73310625,11.2658312 6.73310625,10.1496125 Z M15.6093813,5.543 L15.6272063,5.543 C15.8754625,5.543 16.0880688,5.45445 16.2651688,5.27735 L17.3990688,4.19649375 C17.7713813,3.84215 17.7713813,3.257375 17.4166063,2.88535 C17.06255,2.51318125 16.4776313,2.51318125 16.1054625,2.867525 L14.97185,3.94838125 C14.7946063,4.125625 14.6880875,4.35576875 14.6880875,4.60388125 C14.6880875,4.85199375 14.7766375,5.08228125 14.954025,5.259525 C15.1312688,5.43648125 15.3615563,5.543 15.6093813,5.543 L15.6093813,5.543 Z M9.90451875,3.4347625 C10.152775,3.4347625 10.3829187,3.3462125 10.5601625,3.168825 C10.7372625,2.991725 10.8258125,2.76129375 10.8258125,2.51318125 L10.8258125,0.93624375 C10.8258125,0.42248125 10.4008875,0.01495 9.9046625,0.01495 C9.39075625,0.01495 8.98308125,0.4401625 8.98308125,0.93624375 L8.98308125,2.5130375 C8.9654,3.00911875 9.39046875,3.4347625 9.90451875,3.4347625 L9.90451875,3.4347625 Z M2.5159125,8.83846875 L0.9565125,8.78528125 C0.44275,8.76745625 0.01739375,9.1749875 0,9.6890375 C0,9.93700625 0.08855,10.1675812 0.24796875,10.3446812 C0.42478125,10.5217812 0.65535625,10.6281562 0.9036125,10.6281562 L2.48040625,10.6814875 L2.5159125,10.6814875 C3.01199375,10.6814875 3.43706254,10.2914937 3.43706254,9.7775875 C3.43720625,9.28150625 3.02981875,8.83846875 2.5159125,8.83846875 Z M5.0850125,4.60388125 C5.0850125,4.35576875 4.97878125,4.125625 4.8015375,3.94838125 L3.66735,2.867525 C3.49025,2.69028125 3.25981875,2.60173125 3.01199375,2.60173125 C2.7637375,2.60173125 2.53345,2.70810625 2.35620625,2.8850625 C2.1789625,3.06230625 2.09055625,3.29245 2.09055625,3.54070625 C2.09055625,3.78881875 2.1967875,4.01910625 2.3738875,4.19635 L3.50793125,5.27720625 C3.6766992,5.44721649 3.90633978,5.54285625 4.14589375,5.54285625 C4.39429375,5.54285625 4.62415,5.45430625 4.819075,5.259525 C4.99631875,5.0821375 5.0850125,4.85199375 5.0850125,4.60388125 L5.0850125,4.60388125 Z" id="Shape"></path>
            </g>
        </g>
    </g>
</svg>